====== Fe (2000) into Layer 1                   =======
        SRIM-2013.00
=========================================
        Replacement Collisions       
 See SRIM Outputs\TDATA.txt for calc. details   
=========================================
====== TRIM Calc.= Fe(2 MeV) ==> Layer 1(  1.5 um) ===========================
------------------------------------------------------------------------------
--------------------------------------------------------------------
    Recoil/Damage Calculations made with Kinchin-Pease Estimates    
--------------------------------------------------------------------

 There are NO Replacement Collisions calculated.
 You must execute a full TRIM cascade calculation for these.
