====== Fe (2000) into Layer 1                   =======
        SRIM-2013.00
==================================================
      ION and final RECOIL ATOM Distributions     
 See  SRIM Outputs\TDATA.txt for calculation details
==================================================
====== TRIM Calc.= Fe(2 MeV) ==> Layer 1(  1.5 um) ===========================
------------------------------------------------------------------------------
--------------------------------------------------------------------
    Recoil/Damage Calculations made with Kinchin-Pease Estimates    
--------------------------------------------------------------------
----------------------------------------------------------------
  There are NO RECOILS unless a full TRIM calculation is made.   
----------------------------------------------------------------
See file :  SRIM Outputs\TDATA.txt   for details of calculation
 Ion    = Fe   Energy = 2000  keV
============= TARGET MATERIAL ======================================
Layer  1 : Layer 1
Layer Width =     2.E+04 A   Layer # 1- Density = 8.481E22 atoms/cm3 = 7.865 g/cm3
  Layer # 1- Fe = 100  Atomic Percent = 100  Mass Percent
====================================================================
 Total Ions calculated =2002.78
 Ion Average Range =   683.2E+01 A   Straggling =   163.2E+01 A
 Ion Lateral Range =   141.4E+01 A   Straggling =   175.7E+01 A
 Ion Radial  Range =   222.1E+01 A   Straggling =   111.9E+01 A
====================================================================
 Range Skewne- = -000.6678  &= [-(X-Rp)^3]/[N*Straggle^3]
 Range Kurtosis = 003.5410  &= [-(X-Rp)^4]/[N*Straggle^4]
 Statistical definitions above are those used in VLSI implant modelling.
====================================================================
=================================================================
  Table Distribution Units are >>>  (Atoms/cm3) / (Atoms/cm2)  <<<  
=================================================================
   DEPTH         Fe       Recoil     
   (Ang.)       Ions     Distribution
-----------  ----------  ------------
150010.E-03  0.0000E+00  0.0000E+00
300010.E-03  3.3287E+02  0.0000E+00
450010.E-03  0.0000E+00  0.0000E+00
600010.E-03  0.0000E+00  0.0000E+00
750010.E-03  3.3287E+02  0.0000E+00
900010.E-03  0.0000E+00  0.0000E+00
105001.E-02  6.6574E+02  0.0000E+00
120001.E-02  9.9861E+02  0.0000E+00
135001.E-02  0.0000E+00  0.0000E+00
150001.E-02  3.3287E+02  0.0000E+00
165001.E-02  1.3315E+03  0.0000E+00
180001.E-02  3.3287E+02  0.0000E+00
195001.E-02  3.3287E+02  0.0000E+00
210001.E-02  2.3301E+03  0.0000E+00
225001.E-02  3.3287E+02  0.0000E+00
240001.E-02  6.6574E+02  0.0000E+00
255001.E-02  1.6644E+03  0.0000E+00
270001.E-02  6.6574E+02  0.0000E+00
285001.E-02  2.3301E+03  0.0000E+00
300001.E-02  3.6616E+03  0.0000E+00
315001.E-02  2.6630E+03  0.0000E+00
330001.E-02  1.3315E+03  0.0000E+00
345001.E-02  1.9972E+03  0.0000E+00
360001.E-02  3.9944E+03  0.0000E+00
375001.E-02  4.3273E+03  0.0000E+00
390001.E-02  4.9931E+03  0.0000E+00
405001.E-02  4.6602E+03  0.0000E+00
420001.E-02  6.3245E+03  0.0000E+00
435001.E-02  5.3259E+03  0.0000E+00
450001.E-02  5.9917E+03  0.0000E+00
465001.E-02  6.3245E+03  0.0000E+00
480001.E-02  7.9889E+03  0.0000E+00
495001.E-02  1.0319E+04  0.0000E+00
510001.E-02  1.2982E+04  0.0000E+00
525001.E-02  1.2649E+04  0.0000E+00
540001.E-02  1.4313E+04  0.0000E+00
555001.E-02  1.3648E+04  0.0000E+00
570001.E-02  1.2649E+04  0.0000E+00
585001.E-02  1.4646E+04  0.0000E+00
600001.E-02  1.9639E+04  0.0000E+00
615001.E-02  1.9639E+04  0.0000E+00
630001.E-02  2.2635E+04  0.0000E+00
645001.E-02  2.2302E+04  0.0000E+00
660001.E-02  1.7309E+04  0.0000E+00
675001.E-02  2.6297E+04  0.0000E+00
690001.E-02  2.1969E+04  0.0000E+00
705001.E-02  2.1304E+04  0.0000E+00
720001.E-02  2.9958E+04  0.0000E+00
735001.E-02  2.5964E+04  0.0000E+00
750001.E-02  2.8294E+04  0.0000E+00
765001.E-02  2.0971E+04  0.0000E+00
780001.E-02  2.3634E+04  0.0000E+00
795001.E-02  2.6962E+04  0.0000E+00
810001.E-02  2.5964E+04  0.0000E+00
825001.E-02  1.9639E+04  0.0000E+00
840001.E-02  2.3301E+04  0.0000E+00
855001.E-02  1.2649E+04  0.0000E+00
870001.E-02  2.0305E+04  0.0000E+00
885001.E-02  1.7309E+04  0.0000E+00
900001.E-02  1.2649E+04  0.0000E+00
915001.E-02  7.6560E+03  0.0000E+00
930001.E-02  9.9861E+03  0.0000E+00
945001.E-02  8.6546E+03  0.0000E+00
960001.E-02  6.9903E+03  0.0000E+00
975001.E-02  3.6616E+03  0.0000E+00
990001.E-02  1.9972E+03  0.0000E+00
100500.E-01  2.6630E+03  0.0000E+00
102000.E-01  1.3315E+03  0.0000E+00
103500.E-01  3.3287E+02  0.0000E+00
105000.E-01  6.6574E+02  0.0000E+00
106500.E-01  0.0000E+00  0.0000E+00
108000.E-01  3.3287E+02  0.0000E+00
109500.E-01  0.0000E+00  0.0000E+00
111000.E-01  0.0000E+00  0.0000E+00
112500.E-01  0.0000E+00  0.0000E+00
114000.E-01  0.0000E+00  0.0000E+00
115500.E-01  0.0000E+00  0.0000E+00
117000.E-01  0.0000E+00  0.0000E+00
118500.E-01  0.0000E+00  0.0000E+00
120000.E-01  0.0000E+00  0.0000E+00
121500.E-01  0.0000E+00  0.0000E+00
123000.E-01  0.0000E+00  0.0000E+00
124500.E-01  0.0000E+00  0.0000E+00
126000.E-01  0.0000E+00  0.0000E+00
127500.E-01  0.0000E+00  0.0000E+00
129000.E-01  0.0000E+00  0.0000E+00
130500.E-01  0.0000E+00  0.0000E+00
132000.E-01  0.0000E+00  0.0000E+00
133500.E-01  0.0000E+00  0.0000E+00
135000.E-01  0.0000E+00  0.0000E+00
136500.E-01  0.0000E+00  0.0000E+00
138000.E-01  0.0000E+00  0.0000E+00
139500.E-01  0.0000E+00  0.0000E+00
141000.E-01  0.0000E+00  0.0000E+00
142500.E-01  0.0000E+00  0.0000E+00
144000.E-01  0.0000E+00  0.0000E+00
145500.E-01  0.0000E+00  0.0000E+00
147000.E-01  0.0000E+00  0.0000E+00
148500.E-01  0.0000E+00  0.0000E+00
150000.E-01  0.0000E+00  0.0000E+00
