====== Fe (2000) into Layer 1                   =======
        SRIM-2013.00
==========================================
    Ion and Target VACANCY production     
  See SRIM Outputs\TDATA.txt for calc. details
==========================================
====== TRIM Calc.= Fe(2 MeV) ==> Layer 1(  1.5 um) ===========================
------------------------------------------------------------------------------
--------------------------------------------------------------------
    Recoil/Damage Calculations made with Kinchin-Pease Estimates    
--------------------------------------------------------------------
 See file :  SRIM Outputs\TDATA.txt for calculation data
 Ion    = Fe   Energy = 2000 keV
============= TARGET MATERIAL ======================================
Layer  1 : Layer 1
Layer Width =     2.E+04 A ;
  Layer # 1- Density = 8.481E22 atoms/cm3 = 7.865 g/cm3
  Layer # 1- Fe = 100  Atomic Percent = 100  Mass Percent
====================================================================
 Total Ions calculated =2002.78
 Total Target Vacancies     = 5811 /Ion

==========================================================
  Table Units are  >>>> Vacancies/(Angstrom-Ion)  <<<<  
==========================================================
   TARGET     VACANCIES     VACANCIES 
   DEPTH         by            by     
   (Ang.)       IONS         RECOILS  
-----------  -----------  ------------
150010.E-03  2333.22E-05  3283.19E-04  
300010.E-03  2544.97E-05  3580.26E-04  
450010.E-03  2567.61E-05  4121.78E-04  
600010.E-03  2612.22E-05  3502.32E-04  
750010.E-03  2658.83E-05  3835.03E-04  
900010.E-03  2610.89E-05  3671.66E-04  
105001.E-02  2517.00E-05  4339.07E-04  
120001.E-02  2441.42E-05  3844.36E-04  
135001.E-02  2430.43E-05  4637.62E-04  
150001.E-02  2495.36E-05  4110.32E-04  
165001.E-02  2555.95E-05  5447.18E-04  
180001.E-02  2563.28E-05  4859.18E-04  
195001.E-02  2682.14E-05  4643.78E-04  
210001.E-02  2727.75E-05  5067.58E-04  
225001.E-02  2682.47E-05  4301.92E-04  
240001.E-02  2821.31E-05  5058.31E-04  
255001.E-02  2827.30E-05  5156.26E-04  
270001.E-02  2935.51E-05  5879.89E-04  
285001.E-02  3044.38E-05  5826.79E-04  
300001.E-02  3105.31E-05  6316.24E-04  
315001.E-02  3241.15E-05  6087.34E-04  
330001.E-02  3248.80E-05  5828.60E-04  
345001.E-02  3336.03E-05  6384.93E-04  
360001.E-02  3521.15E-05  6574.20E-04  
375001.E-02  3592.07E-05  6516.60E-04  
390001.E-02  3642.01E-05  7595.81E-04  
405001.E-02  3613.37E-05  6229.74E-04  
420001.E-02  3708.93E-05  6693.43E-04  
435001.E-02  3817.47E-05  8731.15E-04  
450001.E-02  4021.89E-05  8548.51E-04  
465001.E-02  4080.82E-05  7974.22E-04  
480001.E-02  4171.72E-05  7627.79E-04  
495001.E-02  4423.75E-05  8975.67E-04  
510001.E-02  4461.71E-05  9273.91E-04  
525001.E-02  4409.10E-05  8882.03E-04  
540001.E-02  4587.56E-05  8273.08E-04  
555001.E-02  4457.38E-05  8543.93E-04  
570001.E-02  4529.30E-05  8846.28E-04  
585001.E-02  4505.99E-05  8793.99E-04  
600001.E-02  4902.19E-05  9558.70E-04  
615001.E-02  4697.43E-05  9343.82E-04  
630001.E-02  4671.80E-05  8433.66E-04  
645001.E-02  4733.06E-05  9560.39E-04  
660001.E-02  4351.17E-05  8298.62E-04  
675001.E-02  4471.70E-05  7872.21E-04  
690001.E-02  4304.56E-05  8241.21E-04  
705001.E-02  4036.54E-05  7554.54E-04  
720001.E-02  4085.15E-05  7152.52E-04  
735001.E-02  3813.81E-05  6484.18E-04  
750001.E-02  3714.59E-05  6225.62E-04  
765001.E-02  3216.51E-05  5923.97E-04  
780001.E-02  3098.98E-05  5373.82E-04  
795001.E-02  2932.84E-05  4889.25E-04  
810001.E-02  2611.55E-05  4642.68E-04  
825001.E-02  2288.93E-05  3857.98E-04  
840001.E-02  1987.62E-05  3374.59E-04  
855001.E-02  1711.61E-05  2619.42E-04  
870001.E-02  1589.43E-05  2490.61E-04  
885001.E-02  1257.91E-05  1999.58E-04  
900001.E-02  9383.79E-06  1408.15E-04  
915001.E-02  8102.33E-06  1255.69E-04  
930001.E-02  6770.77E-06  8559.74E-05  
945001.E-02  4830.00E-06  6546.00E-05  
960001.E-02  3668.23E-06  5947.89E-05  
975001.E-02  1950.62E-06  3324.08E-05  
990001.E-02  1567.82E-06  2090.92E-05  
100500.E-01  8388.33E-07  9092.88E-06  
102000.E-01  5725.37E-07  7373.22E-06  
103500.E-01  1830.79E-07  1740.68E-06  
105000.E-01  2496.53E-07  2111.93E-06  
106500.E-01  7988.89E-08  9277.51E-07  
108000.E-01  8321.76E-08  1311.03E-06  
109500.E-01  0000.00E+00  0000.00E+00  
111000.E-01  0000.00E+00  0000.00E+00  
112500.E-01  0000.00E+00  0000.00E+00  
114000.E-01  0000.00E+00  0000.00E+00  
115500.E-01  0000.00E+00  0000.00E+00  
117000.E-01  0000.00E+00  0000.00E+00  
118500.E-01  0000.00E+00  0000.00E+00  
120000.E-01  0000.00E+00  0000.00E+00  
121500.E-01  0000.00E+00  0000.00E+00  
123000.E-01  0000.00E+00  0000.00E+00  
124500.E-01  0000.00E+00  0000.00E+00  
126000.E-01  0000.00E+00  0000.00E+00  
127500.E-01  0000.00E+00  0000.00E+00  
129000.E-01  0000.00E+00  0000.00E+00  
130500.E-01  0000.00E+00  0000.00E+00  
132000.E-01  0000.00E+00  0000.00E+00  
133500.E-01  0000.00E+00  0000.00E+00  
135000.E-01  0000.00E+00  0000.00E+00  
136500.E-01  0000.00E+00  0000.00E+00  
138000.E-01  0000.00E+00  0000.00E+00  
139500.E-01  0000.00E+00  0000.00E+00  
141000.E-01  0000.00E+00  0000.00E+00  
142500.E-01  0000.00E+00  0000.00E+00  
144000.E-01  0000.00E+00  0000.00E+00  
145500.E-01  0000.00E+00  0000.00E+00  
147000.E-01  0000.00E+00  0000.00E+00  
148500.E-01  0000.00E+00  0000.00E+00  
150000.E-01  0000.00E+00  0000.00E+00  

 To convert to Energy Lost - multiply by Average Binding Energy =  0  eV/Vacancy
